{
	"250618109_Exp Wh Total (TOU)":"chevron_t1.apt1351mtr.exportWh",
	"250618109_Imp Wh Total (TOU)":"chevron_t1.apt1351mtr.importWh",
	"250618109_Exp varh Total (TOU)":"chevron_t1.apt1351mtr.exportVARh",
	"250618109_Imp varh Total (TOU)":"chevron_t1.apt1351mtr.importVARh",
	"250618109_Voltage ABC Average  Inst":"chevron_t1.apt1351mtr.lineNeutralVoltageInst",
	"250618109_Current ABC Average  Inst":"chevron_t1.apt1351mtr.currentInst",
	"250618109_Watt Total  Inst":"chevron_t1.apt1351mtr.totalWInst",
	"250618109_Frequency  Inst":"chevron_t1.apt1351mtr.freqInst",

	"250352595_Exp Wh Total (TOU)":"chevron_t1.apt1352mtr.exportWh",
	"250352595_Imp Wh Total (TOU)":"chevron_t1.apt1352mtr.importWh",
	"250352595_Exp varh Total (TOU)":"chevron_t1.apt1352mtr.exportVARh",
	"250352595_Imp varh Total (TOU)":"chevron_t1.apt1352mtr.importVARh",
	"250352595_Voltage ABC Average  Inst":"chevron_t1.apt1352mtr.lineNeutralVoltageInst",
	"250352595_Current ABC Average  Inst":"chevron_t1.apt1352mtr.currentInst",
	"250352595_Watt Total  Inst":"chevron_t1.apt1352mtr.totalWInst",
	"250352595_Frequency  Inst":"chevron_t1.apt1352mtr.freqInst",

	"250618114_Exp Wh Total (TOU)":"chevron_t1.apt1361mtr.exportWh",
	"250618114_Imp Wh Total (TOU)":"chevron_t1.apt1361mtr.importWh",
	"250618114_Exp varh Total (TOU)":"chevron_t1.apt1361mtr.exportVARh",
	"250618114_Imp varh Total (TOU)":"chevron_t1.apt1361mtr.importVARh",
	"250618114_Voltage ABC Average  Inst":"chevron_t1.apt1361mtr.lineNeutralVoltageInst",
	"250618114_Current ABC Average  Inst":"chevron_t1.apt1361mtr.currentInst",
	"250618114_Watt Total  Inst":"chevron_t1.apt1361mtr.totalWInst",
	"250618114_Frequency  Inst":"chevron_t1.apt1361mtr.freqInst",

	"250352531_Exp Wh Total (TOU)":"chevron_t1.apt1362mtr.exportWh",
	"250352531_Imp Wh Total (TOU)":"chevron_t1.apt1362mtr.importWh",
	"250352531_Exp varh Total (TOU)":"chevron_t1.apt1362mtr.exportVARh",
	"250352531_Imp varh Total (TOU)":"chevron_t1.apt1362mtr.importVARh",
	"250352531_Voltage ABC Average  Inst":"chevron_t1.apt1362mtr.lineNeutralVoltageInst",
	"250352531_Current ABC Average  Inst":"chevron_t1.apt1362mtr.currentInst",
	"250352531_Watt Total  Inst":"chevron_t1.apt1362mtr.totalWInst",
	"250352531_Frequency  Inst":"chevron_t1.apt1362mtr.freqInst",

	"250352568_Exp Wh Total (TOU)":"chevron_t1.apt1371mtr.exportWh",
	"250352568_Imp Wh Total (TOU)":"chevron_t1.apt1371mtr.importWh",
	"250352568_Exp varh Total (TOU)":"chevron_t1.apt1371mtr.exportVARh",
	"250352568_Imp varh Total (TOU)":"chevron_t1.apt1371mtr.importVARh",
	"250352568_Voltage ABC Average  Inst":"chevron_t1.apt1371mtr.lineNeutralVoltageInst",
	"250352568_Current ABC Average  Inst":"chevron_t1.apt1371mtr.currentInst",
	"250352568_Watt Total  Inst":"chevron_t1.apt1371mtr.totalWInst",
	"250352568_Frequency  Inst":"chevron_t1.apt1371mtr.freqInst",

	"250352545_Exp Wh Total (TOU)":"chevron_t1.apt1372mtr.exportWh",
	"250352545_Imp Wh Total (TOU)":"chevron_t1.apt1372mtr.importWh",
	"250352545_Exp varh Total (TOU)":"chevron_t1.apt1372mtr.exportVARh",
	"250352545_Imp varh Total (TOU)":"chevron_t1.apt1372mtr.importVARh",
	"250352545_Voltage ABC Average  Inst":"chevron_t1.apt1372mtr.lineNeutralVoltageInst",
	"250352545_Current ABC Average  Inst":"chevron_t1.apt1372mtr.currentInst",
	"250352545_Watt Total  Inst":"chevron_t1.apt1372mtr.totalWInst",
	"250352545_Frequency  Inst":"chevron_t1.apt1372mtr.freqInst",

	"250352686_Exp Wh Total (TOU)":"chevron_t1.apt1381mtr.exportWh",
	"250352686_Imp Wh Total (TOU)":"chevron_t1.apt1381mtr.importWh",
	"250352686_Exp varh Total (TOU)":"chevron_t1.apt1381mtr.exportVARh",
	"250352686_Imp varh Total (TOU)":"chevron_t1.apt1381mtr.importVARh",
	"250352686_Voltage ABC Average  Inst":"chevron_t1.apt1381mtr.lineNeutralVoltageInst",
	"250352686_Current ABC Average  Inst":"chevron_t1.apt1381mtr.currentInst",
	"250352686_Watt Total  Inst":"chevron_t1.apt1381mtr.totalWInst",
	"250352686_Frequency  Inst":"chevron_t1.apt1381mtr.freqInst",

	"250352547_Exp Wh Total (TOU)":"chevron_t1.apt1382mtr.exportWh",
	"250352547_Imp Wh Total (TOU)":"chevron_t1.apt1382mtr.importWh",
	"250352547_Exp varh Total (TOU)":"chevron_t1.apt1382mtr.exportVARh",
	"250352547_Imp varh Total (TOU)":"chevron_t1.apt1382mtr.importVARh",
	"250352547_Voltage ABC Average  Inst":"chevron_t1.apt1382mtr.lineNeutralVoltageInst",
	"250352547_Current ABC Average  Inst":"chevron_t1.apt1382mtr.currentInst",
	"250352547_Watt Total  Inst":"chevron_t1.apt1382mtr.totalWInst",
	"250352547_Frequency  Inst":"chevron_t1.apt1382mtr.freqInst"

	
}